﻿参加枠名,ユーザー名,表示名,利用開始日,コメント,参加ステータス,出欠ステータス,この勉強会を何で知りましたか?,発表や相談したいこと等話したいネタがあれば(無くても 変更になっても大丈夫です),どこから参加していますか?(国地域都道府県等/未回答),好きな，お勧めのビデオミーティングソフトウェア，サービスを教えてください,"鹿児島でおすすめの会場があったら教えてください(4,5人入れてできれば電源や回線があると嬉しいです)",その他何でも,更新日時,受付番号
遠隔参加(ビデオ or 音声 + text),densuke,でんすけ,2011年12月28日,鹿児島Linux勉強会 2023.06(オンライン開催) に参加を申し込みました！,参加,出席,,,,,,,2023年5月21日 20時50分,4560244
遠隔参加(ビデオ or 音声 + text),daisugiura,DAI,2021年12月14日,鹿児島Linux勉強会 2023.06(オンライン開催) に参加を申し込みました！,参加,出席,,,,,,,2023年5月21日 21時16分,4560279
遠隔参加(ビデオ or 音声 + text),y-yamano,y-yamano,2017年8月30日,鹿児島Linux勉強会 2023.06(オンライン開催) に参加を申し込みました！,参加,出席,,,,,,,2023年5月22日 09時35分,4560742
遠隔参加(ビデオ or 音声 + text),yukiyama999999999999913,yukiyama999999999999913,2021年1月24日,鹿児島Linux勉強会 2023.06(オンライン開催) に参加を申し込みました！,参加,出席,,,,,,,2023年5月30日 17時07分,4580444
遠隔参加(ビデオ or 音声 + text),kazueda,kazueda,2013年2月6日,鹿児島Linux勉強会 2023.06(オンライン開催) に参加を申し込みました！,参加,出席,,,,,,,2023年6月12日 07時27分,4608145
遠隔参加(ビデオ or 音声 + text),matoken,matoken,2012年12月9日,鹿児島Linux勉強会 2023.06(オンライン開催) に参加を申し込みました！,参加,出席,,,,,,,2023年6月18日 17時07分,4622306
